63ee5bb210f0e56b331b031f0981f41dc1674f3674cf5eb8cc
29b3759094de6b803044c3b26738626bb555a280aa1c4ee1e7
af664868d01f56ca9caac8f75b1563299ee59f096492e58c5a
0ddde0082c776efa267312540b7adfcc11b6658dd89964a1a3
8eabe121986b1986c6220b5e7e8466dea27efa711aa4e78acd
750932ef058eb004066e119487823baec85f7c10226fa871cb
6c598c141c62ec2718cafc9de50811efde67e39884a302364e
69d96403a7204c9a33d49a809461181c6f81a89b9e5421ce71
1d697119115e7fe7eeaed2c02456ffdb389be9def857db7c9c
6b1fb06a4a44cfad3e41a4e14e8172528136609e7299315f9e
7b064ae1ba309531f4197b6df6f98c2c345c6ca7107fa3d072
20594ed37aecbf9ea22bf7c2f517c0b5ff199d3becd6cde8fe
c8be79dbf28210bdadc76a3912397bdb8382d8e35694ad325d
c28067f6201ac5430c3a5fde956a1116c13ea0eb99002bb76f
aec523f8dbe54ffde43f6c684e2049754cf28dc281c403f4ef
53790f447c5b73e067abf09465de68fdef1a1776650e0cbc82
80db03d7fd7657b7251572290fa2a3f88bd9980dca56aecef8
301a39f4ac33bd667a516193e21ea56e0db47a0c9393f31b8e
0973f79380018de5931a28e528a7538cdfc12189951c77a87c
59e198957203109ef05249726783361a48e87f3aadd493e7bb
13deb38ad05df3e1b0f014d93183570a27b6ed3d9afb8a8d45
56bafa262d95c6b790058eb5927711e3a0e3b498a2db7559ce
d49416653a695be90b15485c854f8b83a7475e9a69e7e48144
ff939f5dac2a7c4badc26a69e97346cf413a81cf2add74d4a1
d138e6ba29610d393143594d519949cd150a50ff1f34d3a0dc
4d2068f6899d9176618c0369aa708ca5458efdde685ac5d61d
2b82f2552977016bbb31fe34e82d0b26426112bab010183d0a
e01b858c247b4f64269b689fb1dca1bd6d284f8de347201f11
d3373311b5a923ca7c068f6a308eee60a61487656c6218743a
76d96dbe12074b669f5de51ae9747af0d31637a632fae93837
08be496aa99a314516cc3f82a252168fb76864bfe7bd69673f
e2b17929325f607cfaac6e4eb32d2596856164350e1011f259
97d7a4ada92a8c868da5af7f86ff5fadc3f194a5cb41fbc9f2
05c2574ca69fca2ab7e244d2205103121a1e1c39d0347a23fe
420e3ff4621c160630a29f304b5726d71394dce75c663df816
59e98c57dd25010b8e772ee62f2bcb39da335d975141067407
bf65a5f981012159ef86a81a586b3f6159f4d7e1a1b1e121fa
5296d095a7349c05d8afabe720bfc1903474c4f1811f41bad2
5a51b6f30c4a5dfe299dc70b25eb405f0da879b0873b70d6ec
b9669d30e33cb733b31847cc5174a2b5415d77e1aa09a76e0f
