a9a59c8c89bebaf575dc352c38b87bc900e8fe2ff88600a9b3
bcccae5704c8f4e9f5d353432e62f2ec14907a6a51337d430d
ab3c112fac716c8e24affedf9537c3d1e9a7b27e82b36e31ea
ffd29c2e4746903484aba8046a9298366c6d253d870ede546e
5ed9d93a4bf8873a98522c6daaaddeee70db59355046ab042a
f28d662b33120aadd78628e24789188b7ef9824474c839123b
d3d0903434d5931e026bf5be4bce0653da1c9a193b8ea3116e
3f3652d2ffd799aa0d39451fefb80ebeab16a9c4aa837509aa
72bf2245f622a8daba305ec9ccc97e84588b12fd5ab0ae56a5
032590134b51e190b1a3072ced87f76a9fd223e1c3e76f281c
36c1b4a7453eaf005a9989c16b014d3bb4ba1bfa6b7d9ec810
c6b90d48664f5ad3b35c9a358a6f51faa3eb1a9639a3869af8
514c352ecb5f287dc687202e6f11023ccb06d0d9c6c8280df8
b1771467bc1affb04972704a679365ce1ff0d3b20bbea8694f
a06218638daabd16d10c41798573680ad83a4a9eef840e2a9b
3a8902d3544eeaa853de870f1a1c2b809890d93f3431e6a86d
6061e33a046a5759fe52201959df93abe68b7e8a27c126cba4
2766b878e947c5a90b9eac3ec2c641f05342006201134d6bc4
a935d3f3c28981fe6f194f653c423008ec911b2d3593d8971e
d561a99b9f552c1bc4261a36fa4453e9526b19ea7c7811b457
956a9f9921a5cee17885bd541e1a08247add42873a31e297cb
78faa1a81563b7906270210cdf0fb5c3e46d224e76ae3f6a49
8b52ed023752431829aad0fa3e815f3527267c8f3fe2c47adc
4bc54289af62cce8272803275b90cef6c24953abe30db9c640
80a00b351f62f5adb4949dd0bb38823d757eec54d64ed86d97
823bfe7a358fbdf7602bc9d17cbb15ea9abcb705046f435898
4ec9afbf24aec4d47a13e29d816b51dc65934dfe93be22e240
121963a1206a07c71ae1612098f7bd4734595be55fdb37b73e
f793df59e1d3131df253fad0bbb918d4b0f61eabaf2361b3c9
bfb4859a74c579531074517cd024641ceaf81b175a0fd3c12b
d2aeaa4c655e154d1cdf99875b780cc5da06995919bd3717f6
f90bb54572dfee09735f24afcd71216b9aac1cd39b2d1939a0
f3c42f3fd2338e7ca842cd623366021aa1de26029b89608557
866785376ef618a31b878500053b3fdc08a6e818e524b7f123
cb4399462c0d3533ab34ac9acb4a91bcca03ca43cc2be21bc0
9af79b90fc1443606a057b1a2a50b7b530c0922da836842da1
235c4420717e8944b49e5ee2c87fdfbbd3cd51256f7d130c12
a43aca09ec1905d79c6b1e5b88308d6a62cb609bfdc1ba653f
9cd7a764ea5107cbc631239c095c4e1290bc26322465b5eef5
097eb1b129725d178aa68f4fdf45c7c7aba16542c608a53ea3
